// Jest Snapshot v1, https://goo.gl/fbAQLP

exports[`should render MenuOption correctly 1`] = `
<li
  className="menu-options-list-item "
>
  <span
    onClick={[Function]}
  >
    Sin azúcar
  </span>
  <Connect(MenuOptions) />
</li>
`;
